1: 66
2: 196
3: 227
4: 316
5: 452
6: 538
7: 647
8: 713
9: 805
10: 945
11: 1067
12: 1108
13: 1204
14: 1320
15: 1402
16: 1508
17: 1657
18: 1721
19: 1868
20: 1910
21: 2017
22: 2148
23: 2298
24: 2301
25: 2482
26: 2537
27: 2643
28: 2730
29: 2808
30: 2934
31: 3009
32: 3107
33: 3247
34: 3321
35: 3489
36: 3581
37: 3643
38: 3761
39: 3847
40: 3955
41: 4010
42: 4137
43: 4296
44: 4316
45: 4460
46: 4537
47: 4611
48: 4727
49: 4883
50: 4972
51: 5051
52: 5153
53: 5253
54: 5389
55: 5425
56: 5576
57: 5608
58: 5741
59: 5856
60: 5967
61: 6024
62: 6154
63: 6231
64: 6347
65: 6456
66: 6587
67: 6687
68: 6758
69: 6881
70: 6991
71: 7060
72: 7159
73: 7212
74: 7393
75: 7448
76: 7595
77: 7657
78: 7758
79: 7890
80: 7985
81: 8059
82: 8129
83: 8287
84: 8350
85: 8482
86: 8553
87: 8683
88: 8711
89: 8815
90: 8964
91: 9002
92: 9129
93: 9268
94: 9325
95: 9479
96: 9504
97: 9672
98: 9718
99: 9852
100: 9981
